%YAML 1.1
%TAG !u! tag:unity3d.com,2011:
--- !u!74 &7400000
AnimationClip:
  m_ObjectHideFlags: 0
  m_CorrespondingSourceObject: {fileID: 0}
  m_PrefabInstance: {fileID: 0}
  m_PrefabAsset: {fileID: 0}
  m_Name: CreditObtained
  serializedVersion: 6
  m_Legacy: 0
  m_Compressed: 0
  m_UseHighQualityCurve: 1
  m_RotationCurves: []
  m_CompressedRotationCurves: []
  m_EulerCurves: []
  m_PositionCurves: []
  m_ScaleCurves:
  - curve:
      serializedVersion: 2
      m_Curve:
      - serializedVersion: 3
        time: 0
        value: {x: 1, y: 1, z: 1}
        inSlope: {x: 0, y: 0, z: 0}
        outSlope: {x: 0, y: 0, z: 0}
        tangentMode: 0
        weightedMode: 0
        inWeight: {x: 0.33333334, y: 0.33333334, z: 0.33333334}
        outWeight: {x: 0.33333334, y: 0.33333334, z: 0.33333334}
      - serializedVersion: 3
        time: 0.5
        value: {x: 3, y: 3, z: 1}
        inSlope: {x: 0, y: 0, z: 0}
        outSlope: {x: 0, y: 0, z: 0}
        tangentMode: 0
        weightedMode: 0
        inWeight: {x: 0.33333334, y: 0.33333334, z: 0.33333334}
        outWeight: {x: 0.33333334, y: 0.33333334, z: 0.33333334}
      - serializedVersion: 3
        time: 0.98333335
        value: {x: 1, y: 1, z: 1}
        inSlope: {x: 0, y: 0, z: 0}
        outSlope: {x: 0, y: 0, z: 0}
        tangentMode: 0
        weightedMode: 0
        inWeight: {x: 0.33333334, y: 0.33333334, z: 0.33333334}
        outWeight: {x: 0.33333334, y: 0.33333334, z: 0.33333334}
      m_PreInfinity: 2
      m_PostInfinity: 2
      m_RotationOrder: 4
    path: 
  m_FloatCurves: []
  m_PPtrCurves:
  - curve:
    - time: 0.033333335
      value: {fileID: 21300000, guid: 90ccade435bec3c4c9a407b01aaf5a79, type: 3}
    - time: 0.083333336
      value: {fileID: 21300000, guid: 7b4396d4887a62347bdd9125eb639a42, type: 3}
    - time: 0.13333334
      value: {fileID: 21300000, guid: ffcf867f0a2dc4b458a4cbaa08b11cdb, type: 3}
    - time: 0.18333334
      value: {fileID: 21300000, guid: c3972fded5448ae428834694b64d2b6f, type: 3}
    - time: 0.21666667
      value: {fileID: 21300000, guid: 3c12df96c652ec649af607a0a605146c, type: 3}
    - time: 0.26666668
      value: {fileID: 21300000, guid: 1a59fbc0d9aa1ef4d942431c4421a434, type: 3}
    - time: 0.31666666
      value: {fileID: 21300000, guid: b8923d3818b3db14d86d7f5222959fc6, type: 3}
    - time: 0.35
      value: {fileID: 21300000, guid: d7d95065f15c64c459cbfef124cf3e75, type: 3}
    - time: 0.4
      value: {fileID: 21300000, guid: 892cf1309ab42f645aa1d7c5396aedad, type: 3}
    - time: 0.45
      value: {fileID: 21300000, guid: a33a1653f5fa65848b6f813234ce5046, type: 3}
    - time: 0.5
      value: {fileID: 21300000, guid: 90ccade435bec3c4c9a407b01aaf5a79, type: 3}
    - time: 0.55
      value: {fileID: 21300000, guid: 7b4396d4887a62347bdd9125eb639a42, type: 3}
    - time: 0.6
      value: {fileID: 21300000, guid: ffcf867f0a2dc4b458a4cbaa08b11cdb, type: 3}
    - time: 0.65
      value: {fileID: 21300000, guid: c3972fded5448ae428834694b64d2b6f, type: 3}
    - time: 0.68333334
      value: {fileID: 21300000, guid: 3c12df96c652ec649af607a0a605146c, type: 3}
    - time: 0.73333335
      value: {fileID: 21300000, guid: 1a59fbc0d9aa1ef4d942431c4421a434, type: 3}
    - time: 0.78333336
      value: {fileID: 21300000, guid: b8923d3818b3db14d86d7f5222959fc6, type: 3}
    - time: 0.81666666
      value: {fileID: 21300000, guid: d7d95065f15c64c459cbfef124cf3e75, type: 3}
    - time: 0.8666667
      value: {fileID: 21300000, guid: 892cf1309ab42f645aa1d7c5396aedad, type: 3}
    - time: 0.9166667
      value: {fileID: 21300000, guid: a33a1653f5fa65848b6f813234ce5046, type: 3}
    - time: 0.96666664
      value: {fileID: 21300000, guid: 90ccade435bec3c4c9a407b01aaf5a79, type: 3}
    attribute: m_Sprite
    path: 
    classID: 114
    script: {fileID: 11500000, guid: fe87c0e1cc204ed48ad3b37840f39efc, type: 3}
  m_SampleRate: 60
  m_WrapMode: 0
  m_Bounds:
    m_Center: {x: 0, y: 0, z: 0}
    m_Extent: {x: 0, y: 0, z: 0}
  m_ClipBindingConstant:
    genericBindings:
    - serializedVersion: 2
      path: 0
      attribute: 3
      script: {fileID: 0}
      typeID: 4
      customType: 0
      isPPtrCurve: 0
    - serializedVersion: 2
      path: 0
      attribute: 2015549526
      script: {fileID: 11500000, guid: fe87c0e1cc204ed48ad3b37840f39efc, type: 3}
      typeID: 114
      customType: 0
      isPPtrCurve: 1
    pptrCurveMapping:
    - {fileID: 21300000, guid: 90ccade435bec3c4c9a407b01aaf5a79, type: 3}
    - {fileID: 21300000, guid: 7b4396d4887a62347bdd9125eb639a42, type: 3}
    - {fileID: 21300000, guid: ffcf867f0a2dc4b458a4cbaa08b11cdb, type: 3}
    - {fileID: 21300000, guid: c3972fded5448ae428834694b64d2b6f, type: 3}
    - {fileID: 21300000, guid: 3c12df96c652ec649af607a0a605146c, type: 3}
    - {fileID: 21300000, guid: 1a59fbc0d9aa1ef4d942431c4421a434, type: 3}
    - {fileID: 21300000, guid: b8923d3818b3db14d86d7f5222959fc6, type: 3}
    - {fileID: 21300000, guid: d7d95065f15c64c459cbfef124cf3e75, type: 3}
    - {fileID: 21300000, guid: 892cf1309ab42f645aa1d7c5396aedad, type: 3}
    - {fileID: 21300000, guid: a33a1653f5fa65848b6f813234ce5046, type: 3}
    - {fileID: 21300000, guid: 90ccade435bec3c4c9a407b01aaf5a79, type: 3}
    - {fileID: 21300000, guid: 7b4396d4887a62347bdd9125eb639a42, type: 3}
    - {fileID: 21300000, guid: ffcf867f0a2dc4b458a4cbaa08b11cdb, type: 3}
    - {fileID: 21300000, guid: c3972fded5448ae428834694b64d2b6f, type: 3}
    - {fileID: 21300000, guid: 3c12df96c652ec649af607a0a605146c, type: 3}
    - {fileID: 21300000, guid: 1a59fbc0d9aa1ef4d942431c4421a434, type: 3}
    - {fileID: 21300000, guid: b8923d3818b3db14d86d7f5222959fc6, type: 3}
    - {fileID: 21300000, guid: d7d95065f15c64c459cbfef124cf3e75, type: 3}
    - {fileID: 21300000, guid: 892cf1309ab42f645aa1d7c5396aedad, type: 3}
    - {fileID: 21300000, guid: a33a1653f5fa65848b6f813234ce5046, type: 3}
    - {fileID: 21300000, guid: 90ccade435bec3c4c9a407b01aaf5a79, type: 3}
  m_AnimationClipSettings:
    serializedVersion: 2
    m_AdditiveReferencePoseClip: {fileID: 0}
    m_AdditiveReferencePoseTime: 0
    m_StartTime: 0
    m_StopTime: 0.98333335
    m_OrientationOffsetY: 0
    m_Level: 0
    m_CycleOffset: 0
    m_HasAdditiveReferencePose: 0
    m_LoopTime: 0
    m_LoopBlend: 0
    m_LoopBlendOrientation: 0
    m_LoopBlendPositionY: 0
    m_LoopBlendPositionXZ: 0
    m_KeepOriginalOrientation: 0
    m_KeepOriginalPositionY: 1
    m_KeepOriginalPositionXZ: 0
    m_HeightFromFeet: 0
    m_Mirror: 0
  m_EditorCurves:
  - curve:
      serializedVersion: 2
      m_Curve:
      - serializedVersion: 3
        time: 0
        value: 1
        inSlope: 0
        outSlope: 0
        tangentMode: 136
        weightedMode: 0
        inWeight: 0.33333334
        outWeight: 0.33333334
      - serializedVersion: 3
        time: 0.5
        value: 3
        inSlope: 0
        outSlope: 0
        tangentMode: 136
        weightedMode: 0
        inWeight: 0.33333334
        outWeight: 0.33333334
      - serializedVersion: 3
        time: 0.98333335
        value: 1
        inSlope: 0
        outSlope: 0
        tangentMode: 136
        weightedMode: 0
        inWeight: 0.33333334
        outWeight: 0.33333334
      m_PreInfinity: 2
      m_PostInfinity: 2
      m_RotationOrder: 4
    attribute: m_LocalScale.x
    path: 
    classID: 224
    script: {fileID: 0}
  - curve:
      serializedVersion: 2
      m_Curve:
      - serializedVersion: 3
        time: 0
        value: 1
        inSlope: 0
        outSlope: 0
        tangentMode: 136
        weightedMode: 0
        inWeight: 0.33333334
        outWeight: 0.33333334
      - serializedVersion: 3
        time: 0.5
        value: 3
        inSlope: 0
        outSlope: 0
        tangentMode: 136
        weightedMode: 0
        inWeight: 0.33333334
        outWeight: 0.33333334
      - serializedVersion: 3
        time: 0.98333335
        value: 1
        inSlope: 0
        outSlope: 0
        tangentMode: 136
        weightedMode: 0
        inWeight: 0.33333334
        outWeight: 0.33333334
      m_PreInfinity: 2
      m_PostInfinity: 2
      m_RotationOrder: 4
    attribute: m_LocalScale.y
    path: 
    classID: 224
    script: {fileID: 0}
  - curve:
      serializedVersion: 2
      m_Curve:
      - serializedVersion: 3
        time: 0
        value: 1
        inSlope: 0
        outSlope: 0
        tangentMode: 136
        weightedMode: 0
        inWeight: 0.33333334
        outWeight: 0.33333334
      - serializedVersion: 3
        time: 0.5
        value: 1
        inSlope: 0
        outSlope: 0
        tangentMode: 136
        weightedMode: 0
        inWeight: 0.33333334
        outWeight: 0.33333334
      - serializedVersion: 3
        time: 0.98333335
        value: 1
        inSlope: 0
        outSlope: 0
        tangentMode: 136
        weightedMode: 0
        inWeight: 0.33333334
        outWeight: 0.33333334
      m_PreInfinity: 2
      m_PostInfinity: 2
      m_RotationOrder: 4
    attribute: m_LocalScale.z
    path: 
    classID: 224
    script: {fileID: 0}
  m_EulerEditorCurves: []
  m_HasGenericRootTransform: 0
  m_HasMotionFloatCurves: 0
  m_Events: []
